{
  "project_info": {
    "project_number": "393299217599",
    "firebase_url": "https://parkingapp-e86a1.firebaseio.com",
    "project_id": "parkingapp-e86a1",
    "storage_bucket": "parkingapp-e86a1.appspot.com"
  },
  "client": [
    {
      "client_info": {
        "mobilesdk_app_id": "1:393299217599:android:ba570732d01f6b1c",
        "android_client_info": {
          "package_name": "br.com.louisk.parkingclientapp"
        }
      },
      "oauth_client": [
        {
          "client_id": "393299217599-dn5aiht9d9p4hc50fulpe379of1kfmbe.apps.googleusercontent.com",
          "client_type": 3
        }
      ],
      "api_key": [
        {
          "current_key": "AIzaSyASQahalGh-E87VNXsHTiLBJiBcO8d37N8"
        }
      ],
      "services": {
        "analytics_service": {
          "status": 1
        },
        "appinvite_service": {
          "status": 1,
          "other_platform_oauth_client": []
        },
        "ads_service": {
          "status": 2
        }
      }
    }
  ],
  "configuration_version": "1"
}